-- Merging decision tree log ---
manifest
ADDED from D:\AndroidStudioProjects\MyApplication\app\src\main\AndroidManifest.xml:2:1-34:12
INJECTED from D:\AndroidStudioProjects\MyApplication\app\src\main\AndroidManifest.xml:2:1-34:12
INJECTED from D:\AndroidStudioProjects\MyApplication\app\src\main\AndroidManifest.xml:2:1-34:12
INJECTED from D:\AndroidStudioProjects\MyApplication\app\src\main\AndroidManifest.xml:2:1-34:12
MERGED from [com.github.aabhasr1:OtpView:v1.1.2-ktx] C:\Users\Bharath\.gradle\caches\transforms-2\files-2.1\7bb4137a0a066de986cd4ef6d7f77655\AndroidManifest.xml:2:1-11:12
MERGED from [androidx.constraintlayout:constraintlayout:2.0.4] C:\Users\Bharath\.gradle\caches\transforms-2\files-2.1\baafb46181d9a67475cf34f3add84a2d\AndroidManifest.xml:2:1-11:12
MERGED from [androidx.appcompat:appcompat:1.2.0] C:\Users\Bharath\.gradle\caches\transforms-2\files-2.1\93545d3b85c17f93f11b8fcca4111942\AndroidManifest.xml:17:1-24:12
MERGED from [androidx.core:core-ktx:1.3.2] C:\Users\Bharath\.gradle\caches\transforms-2\files-2.1\8d7e152844d3384d7de39e7710f6c973\AndroidManifest.xml:2:1-9:12
MERGED from [androidx.legacy:legacy-support-v4:1.0.0] C:\Users\Bharath\.gradle\caches\transforms-2\files-2.1\b6b669d9b4115e0d8c10133bd0e037e0\AndroidManifest.xml:17:1-22:12
MERGED from [androidx.legacy:legacy-support-core-ui:1.0.0] C:\Users\Bharath\.gradle\caches\transforms-2\files-2.1\f43e77715895687b1f1ec5fec6cf5158\AndroidManifest.xml:17:1-22:12
MERGED from [androidx.cursoradapter:cursoradapter:1.0.0] C:\Users\Bharath\.gradle\caches\transforms-2\files-2.1\3d21c2c32175b26d7e0dbc661552e23a\AndroidManifest.xml:17:1-22:12
MERGED from [androidx.fragment:fragment:1.1.0] C:\Users\Bharath\.gradle\caches\transforms-2\files-2.1\06bfd4b8ed9923e6012d3aff88ca749e\AndroidManifest.xml:17:1-24:12
MERGED from [androidx.appcompat:appcompat-resources:1.2.0] C:\Users\Bharath\.gradle\caches\transforms-2\files-2.1\89517320960b89b5a7545f62f0425bac\AndroidManifest.xml:17:1-24:12
MERGED from [androidx.drawerlayout:drawerlayout:1.0.0] C:\Users\Bharath\.gradle\caches\transforms-2\files-2.1\4be9b746478eab643531c49a13161ce2\AndroidManifest.xml:17:1-22:12
MERGED from [androidx.media:media:1.0.0] C:\Users\Bharath\.gradle\caches\transforms-2\files-2.1\271a10b20b78f08568a67648a615bac2\AndroidManifest.xml:17:1-22:12
MERGED from [androidx.legacy:legacy-support-core-utils:1.0.0] C:\Users\Bharath\.gradle\caches\transforms-2\files-2.1\12211817c4f7816e6d2b29ff82b2e169\AndroidManifest.xml:17:1-22:12
MERGED from [androidx.viewpager:viewpager:1.0.0] C:\Users\Bharath\.gradle\caches\transforms-2\files-2.1\b9e5e01461bb9937833cd8664717b118\AndroidManifest.xml:17:1-22:12
MERGED from [androidx.loader:loader:1.0.0] C:\Users\Bharath\.gradle\caches\transforms-2\files-2.1\ba9928d2cea8472736cf29e8645c73d6\AndroidManifest.xml:17:1-22:12
MERGED from [androidx.activity:activity:1.0.0] C:\Users\Bharath\.gradle\caches\transforms-2\files-2.1\5db340d897a66c3bafb09e57ed009d59\AndroidManifest.xml:17:1-24:12
MERGED from [androidx.vectordrawable:vectordrawable-animated:1.1.0] C:\Users\Bharath\.gradle\caches\transforms-2\files-2.1\c9d2c68bf7b5f5cab50bf05d74822481\AndroidManifest.xml:17:1-24:12
MERGED from [androidx.vectordrawable:vectordrawable:1.1.0] C:\Users\Bharath\.gradle\caches\transforms-2\files-2.1\b21cdad5d08ad1259c2dfa62dcdf624d\AndroidManifest.xml:17:1-24:12
MERGED from [androidx.coordinatorlayout:coordinatorlayout:1.0.0] C:\Users\Bharath\.gradle\caches\transforms-2\files-2.1\23f7f96949e3d7e86faf4bf403ab98f7\AndroidManifest.xml:17:1-22:12
MERGED from [androidx.slidingpanelayout:slidingpanelayout:1.0.0] C:\Users\Bharath\.gradle\caches\transforms-2\files-2.1\58e1d5610d45a396d8ff124220f65b95\AndroidManifest.xml:17:1-22:12
MERGED from [androidx.customview:customview:1.0.0] C:\Users\Bharath\.gradle\caches\transforms-2\files-2.1\f351f1cc0c86a102bfa69fd7edab7099\AndroidManifest.xml:17:1-22:12
MERGED from [androidx.swiperefreshlayout:swiperefreshlayout:1.0.0] C:\Users\Bharath\.gradle\caches\transforms-2\files-2.1\9687aaef143190ebbf43ba1e8b0c620e\AndroidManifest.xml:17:1-22:12
MERGED from [androidx.asynclayoutinflater:asynclayoutinflater:1.0.0] C:\Users\Bharath\.gradle\caches\transforms-2\files-2.1\8c69f846afe8527e2d109285fe0c671a\AndroidManifest.xml:17:1-22:12
MERGED from [androidx.core:core:1.3.2] C:\Users\Bharath\.gradle\caches\transforms-2\files-2.1\202bb41294b61f2f5eec1e5aad440c8f\AndroidManifest.xml:17:1-26:12
MERGED from [androidx.versionedparcelable:versionedparcelable:1.1.0] C:\Users\Bharath\.gradle\caches\transforms-2\files-2.1\8e049ecab059b0dcad2531c3d925967d\AndroidManifest.xml:17:1-27:12
MERGED from [androidx.documentfile:documentfile:1.0.0] C:\Users\Bharath\.gradle\caches\transforms-2\files-2.1\0637f9f159e22076b0b0b8a3fbc9f986\AndroidManifest.xml:17:1-22:12
MERGED from [androidx.localbroadcastmanager:localbroadcastmanager:1.0.0] C:\Users\Bharath\.gradle\caches\transforms-2\files-2.1\227438fc2df7ef733948acb15f325585\AndroidManifest.xml:17:1-22:12
MERGED from [androidx.print:print:1.0.0] C:\Users\Bharath\.gradle\caches\transforms-2\files-2.1\b92e03e349bfecdb193ed3605bf32fb6\AndroidManifest.xml:17:1-22:12
MERGED from [androidx.interpolator:interpolator:1.0.0] C:\Users\Bharath\.gradle\caches\transforms-2\files-2.1\1b4e34e76c27cb9b893a65f6ae81d628\AndroidManifest.xml:17:1-22:12
MERGED from [androidx.lifecycle:lifecycle-runtime:2.1.0] C:\Users\Bharath\.gradle\caches\transforms-2\files-2.1\aae882648a4e308c866222e6e579990e\AndroidManifest.xml:17:1-22:12
MERGED from [androidx.lifecycle:lifecycle-viewmodel:2.1.0] C:\Users\Bharath\.gradle\caches\transforms-2\files-2.1\6eb976580897f457144628d10b85e08e\AndroidManifest.xml:17:1-22:12
MERGED from [androidx.savedstate:savedstate:1.0.0] C:\Users\Bharath\.gradle\caches\transforms-2\files-2.1\3ad0d7261448b3a58aea20440439dff2\AndroidManifest.xml:17:1-24:12
MERGED from [androidx.lifecycle:lifecycle-livedata:2.0.0] C:\Users\Bharath\.gradle\caches\transforms-2\files-2.1\f69cb52051f654766a13b4a279dc57a1\AndroidManifest.xml:17:1-22:12
MERGED from [androidx.lifecycle:lifecycle-livedata-core:2.0.0] C:\Users\Bharath\.gradle\caches\transforms-2\files-2.1\4926697bcaa26a5442c4129d07108f3f\AndroidManifest.xml:17:1-22:12
MERGED from [androidx.arch.core:core-runtime:2.0.0] C:\Users\Bharath\.gradle\caches\transforms-2\files-2.1\c592fff363177ed91c6de6d366536cfe\AndroidManifest.xml:17:1-22:12
INJECTED from D:\AndroidStudioProjects\MyApplication\app\src\main\AndroidManifest.xml:2:1-34:12
INJECTED from D:\AndroidStudioProjects\MyApplication\app\src\main\AndroidManifest.xml:2:1-34:12
INJECTED from D:\AndroidStudioProjects\MyApplication\app\src\main\AndroidManifest.xml:2:1-34:12
	package
		ADDED from D:\AndroidStudioProjects\MyApplication\app\src\main\AndroidManifest.xml:3:11-46
		INJECTED from D:\AndroidStudioProjects\MyApplication\app\src\main\AndroidManifest.xml
		INJECTED from D:\AndroidStudioProjects\MyApplication\app\src\main\AndroidManifest.xml
	android:versionName
		INJECTED from D:\AndroidStudioProjects\MyApplication\app\src\main\AndroidManifest.xml
		ADDED from D:\AndroidStudioProjects\MyApplication\app\src\main\AndroidManifest.xml:2:1-34:12
		INJECTED from D:\AndroidStudioProjects\MyApplication\app\src\main\AndroidManifest.xml
	android:versionCode
		INJECTED from D:\AndroidStudioProjects\MyApplication\app\src\main\AndroidManifest.xml
		ADDED from D:\AndroidStudioProjects\MyApplication\app\src\main\AndroidManifest.xml:2:1-34:12
		INJECTED from D:\AndroidStudioProjects\MyApplication\app\src\main\AndroidManifest.xml
	xmlns:android
		ADDED from D:\AndroidStudioProjects\MyApplication\app\src\main\AndroidManifest.xml:2:11-69
uses-permission#android.permission.READ_SMS
ADDED from D:\AndroidStudioProjects\MyApplication\app\src\main\AndroidManifest.xml:4:5-67
	android:name
		ADDED from D:\AndroidStudioProjects\MyApplication\app\src\main\AndroidManifest.xml:4:22-64
uses-permission#android.permission.RECEIVE_SMS
ADDED from D:\AndroidStudioProjects\MyApplication\app\src\main\AndroidManifest.xml:5:5-70
	android:name
		ADDED from D:\AndroidStudioProjects\MyApplication\app\src\main\AndroidManifest.xml:5:22-67
application
ADDED from D:\AndroidStudioProjects\MyApplication\app\src\main\AndroidManifest.xml:6:5-32:19
MERGED from [androidx.constraintlayout:constraintlayout:2.0.4] C:\Users\Bharath\.gradle\caches\transforms-2\files-2.1\baafb46181d9a67475cf34f3add84a2d\AndroidManifest.xml:9:5-20
MERGED from [androidx.constraintlayout:constraintlayout:2.0.4] C:\Users\Bharath\.gradle\caches\transforms-2\files-2.1\baafb46181d9a67475cf34f3add84a2d\AndroidManifest.xml:9:5-20
MERGED from [androidx.core:core:1.3.2] C:\Users\Bharath\.gradle\caches\transforms-2\files-2.1\202bb41294b61f2f5eec1e5aad440c8f\AndroidManifest.xml:24:5-89
MERGED from [androidx.core:core:1.3.2] C:\Users\Bharath\.gradle\caches\transforms-2\files-2.1\202bb41294b61f2f5eec1e5aad440c8f\AndroidManifest.xml:24:5-89
MERGED from [androidx.versionedparcelable:versionedparcelable:1.1.0] C:\Users\Bharath\.gradle\caches\transforms-2\files-2.1\8e049ecab059b0dcad2531c3d925967d\AndroidManifest.xml:24:5-25:19
MERGED from [androidx.versionedparcelable:versionedparcelable:1.1.0] C:\Users\Bharath\.gradle\caches\transforms-2\files-2.1\8e049ecab059b0dcad2531c3d925967d\AndroidManifest.xml:24:5-25:19
	android:appComponentFactory
		ADDED from [androidx.core:core:1.3.2] C:\Users\Bharath\.gradle\caches\transforms-2\files-2.1\202bb41294b61f2f5eec1e5aad440c8f\AndroidManifest.xml:24:18-86
	android:supportsRtl
		ADDED from D:\AndroidStudioProjects\MyApplication\app\src\main\AndroidManifest.xml:11:13-39
	android:label
		ADDED from D:\AndroidStudioProjects\MyApplication\app\src\main\AndroidManifest.xml:9:13-45
	android:roundIcon
		ADDED from D:\AndroidStudioProjects\MyApplication\app\src\main\AndroidManifest.xml:10:13-58
	android:icon
		ADDED from D:\AndroidStudioProjects\MyApplication\app\src\main\AndroidManifest.xml:8:13-47
	android:allowBackup
		ADDED from D:\AndroidStudioProjects\MyApplication\app\src\main\AndroidManifest.xml:7:13-39
	android:theme
		ADDED from D:\AndroidStudioProjects\MyApplication\app\src\main\AndroidManifest.xml:12:13-44
activity#com.example.myapplication.MainActivity
ADDED from D:\AndroidStudioProjects\MyApplication\app\src\main\AndroidManifest.xml:13:9-19:20
	android:name
		ADDED from D:\AndroidStudioProjects\MyApplication\app\src\main\AndroidManifest.xml:13:19-47
intent-filter#action:name:android.intent.action.MAIN+category:name:android.intent.category.LAUNCHER
ADDED from D:\AndroidStudioProjects\MyApplication\app\src\main\AndroidManifest.xml:14:13-18:29
action#android.intent.action.MAIN
ADDED from D:\AndroidStudioProjects\MyApplication\app\src\main\AndroidManifest.xml:15:17-68
	android:name
		ADDED from D:\AndroidStudioProjects\MyApplication\app\src\main\AndroidManifest.xml:15:25-66
category#android.intent.category.LAUNCHER
ADDED from D:\AndroidStudioProjects\MyApplication\app\src\main\AndroidManifest.xml:17:17-76
	android:name
		ADDED from D:\AndroidStudioProjects\MyApplication\app\src\main\AndroidManifest.xml:17:27-74
receiver#com.example.myapplication.SmsReceiver
ADDED from D:\AndroidStudioProjects\MyApplication\app\src\main\AndroidManifest.xml:21:9-30:20
	android:enabled
		ADDED from D:\AndroidStudioProjects\MyApplication\app\src\main\AndroidManifest.xml:23:17-39
	android:exported
		ADDED from D:\AndroidStudioProjects\MyApplication\app\src\main\AndroidManifest.xml:24:17-40
	android:permission
		ADDED from D:\AndroidStudioProjects\MyApplication\app\src\main\AndroidManifest.xml:25:17-70
	android:name
		ADDED from D:\AndroidStudioProjects\MyApplication\app\src\main\AndroidManifest.xml:22:17-44
intent-filter#action:name:android.provider.Telephony.SMS_RECEIVED+category:name:android.intent.category.DEFAULT
ADDED from D:\AndroidStudioProjects\MyApplication\app\src\main\AndroidManifest.xml:26:13-29:29
action#android.provider.Telephony.SMS_RECEIVED
ADDED from D:\AndroidStudioProjects\MyApplication\app\src\main\AndroidManifest.xml:27:17-81
	android:name
		ADDED from D:\AndroidStudioProjects\MyApplication\app\src\main\AndroidManifest.xml:27:25-79
category#android.intent.category.DEFAULT
ADDED from D:\AndroidStudioProjects\MyApplication\app\src\main\AndroidManifest.xml:28:17-75
	android:name
		ADDED from D:\AndroidStudioProjects\MyApplication\app\src\main\AndroidManifest.xml:28:27-73
uses-sdk
INJECTED from D:\AndroidStudioProjects\MyApplication\app\src\main\AndroidManifest.xml reason: use-sdk injection requested
INJECTED from D:\AndroidStudioProjects\MyApplication\app\src\main\AndroidManifest.xml
INJECTED from D:\AndroidStudioProjects\MyApplication\app\src\main\AndroidManifest.xml
MERGED from [com.github.aabhasr1:OtpView:v1.1.2-ktx] C:\Users\Bharath\.gradle\caches\transforms-2\files-2.1\7bb4137a0a066de986cd4ef6d7f77655\AndroidManifest.xml:7:5-9:41
MERGED from [com.github.aabhasr1:OtpView:v1.1.2-ktx] C:\Users\Bharath\.gradle\caches\transforms-2\files-2.1\7bb4137a0a066de986cd4ef6d7f77655\AndroidManifest.xml:7:5-9:41
MERGED from [androidx.constraintlayout:constraintlayout:2.0.4] C:\Users\Bharath\.gradle\caches\transforms-2\files-2.1\baafb46181d9a67475cf34f3add84a2d\AndroidManifest.xml:5:5-7:41
MERGED from [androidx.constraintlayout:constraintlayout:2.0.4] C:\Users\Bharath\.gradle\caches\transforms-2\files-2.1\baafb46181d9a67475cf34f3add84a2d\AndroidManifest.xml:5:5-7:41
MERGED from [androidx.appcompat:appcompat:1.2.0] C:\Users\Bharath\.gradle\caches\transforms-2\files-2.1\93545d3b85c17f93f11b8fcca4111942\AndroidManifest.xml:20:5-22:41
MERGED from [androidx.appcompat:appcompat:1.2.0] C:\Users\Bharath\.gradle\caches\transforms-2\files-2.1\93545d3b85c17f93f11b8fcca4111942\AndroidManifest.xml:20:5-22:41
MERGED from [androidx.core:core-ktx:1.3.2] C:\Users\Bharath\.gradle\caches\transforms-2\files-2.1\8d7e152844d3384d7de39e7710f6c973\AndroidManifest.xml:5:5-7:41
MERGED from [androidx.core:core-ktx:1.3.2] C:\Users\Bharath\.gradle\caches\transforms-2\files-2.1\8d7e152844d3384d7de39e7710f6c973\AndroidManifest.xml:5:5-7:41
MERGED from [androidx.legacy:legacy-support-v4:1.0.0] C:\Users\Bharath\.gradle\caches\transforms-2\files-2.1\b6b669d9b4115e0d8c10133bd0e037e0\AndroidManifest.xml:20:5-44
MERGED from [androidx.legacy:legacy-support-v4:1.0.0] C:\Users\Bharath\.gradle\caches\transforms-2\files-2.1\b6b669d9b4115e0d8c10133bd0e037e0\AndroidManifest.xml:20:5-44
MERGED from [androidx.legacy:legacy-support-core-ui:1.0.0] C:\Users\Bharath\.gradle\caches\transforms-2\files-2.1\f43e77715895687b1f1ec5fec6cf5158\AndroidManifest.xml:20:5-44
MERGED from [androidx.legacy:legacy-support-core-ui:1.0.0] C:\Users\Bharath\.gradle\caches\transforms-2\files-2.1\f43e77715895687b1f1ec5fec6cf5158\AndroidManifest.xml:20:5-44
MERGED from [androidx.cursoradapter:cursoradapter:1.0.0] C:\Users\Bharath\.gradle\caches\transforms-2\files-2.1\3d21c2c32175b26d7e0dbc661552e23a\AndroidManifest.xml:20:5-44
MERGED from [androidx.cursoradapter:cursoradapter:1.0.0] C:\Users\Bharath\.gradle\caches\transforms-2\files-2.1\3d21c2c32175b26d7e0dbc661552e23a\AndroidManifest.xml:20:5-44
MERGED from [androidx.fragment:fragment:1.1.0] C:\Users\Bharath\.gradle\caches\transforms-2\files-2.1\06bfd4b8ed9923e6012d3aff88ca749e\AndroidManifest.xml:20:5-22:41
MERGED from [androidx.fragment:fragment:1.1.0] C:\Users\Bharath\.gradle\caches\transforms-2\files-2.1\06bfd4b8ed9923e6012d3aff88ca749e\AndroidManifest.xml:20:5-22:41
MERGED from [androidx.appcompat:appcompat-resources:1.2.0] C:\Users\Bharath\.gradle\caches\transforms-2\files-2.1\89517320960b89b5a7545f62f0425bac\AndroidManifest.xml:20:5-22:41
MERGED from [androidx.appcompat:appcompat-resources:1.2.0] C:\Users\Bharath\.gradle\caches\transforms-2\files-2.1\89517320960b89b5a7545f62f0425bac\AndroidManifest.xml:20:5-22:41
MERGED from [androidx.drawerlayout:drawerlayout:1.0.0] C:\Users\Bharath\.gradle\caches\transforms-2\files-2.1\4be9b746478eab643531c49a13161ce2\AndroidManifest.xml:20:5-44
MERGED from [androidx.drawerlayout:drawerlayout:1.0.0] C:\Users\Bharath\.gradle\caches\transforms-2\files-2.1\4be9b746478eab643531c49a13161ce2\AndroidManifest.xml:20:5-44
MERGED from [androidx.media:media:1.0.0] C:\Users\Bharath\.gradle\caches\transforms-2\files-2.1\271a10b20b78f08568a67648a615bac2\AndroidManifest.xml:20:5-44
MERGED from [androidx.media:media:1.0.0] C:\Users\Bharath\.gradle\caches\transforms-2\files-2.1\271a10b20b78f08568a67648a615bac2\AndroidManifest.xml:20:5-44
MERGED from [androidx.legacy:legacy-support-core-utils:1.0.0] C:\Users\Bharath\.gradle\caches\transforms-2\files-2.1\12211817c4f7816e6d2b29ff82b2e169\AndroidManifest.xml:20:5-44
MERGED from [androidx.legacy:legacy-support-core-utils:1.0.0] C:\Users\Bharath\.gradle\caches\transforms-2\files-2.1\12211817c4f7816e6d2b29ff82b2e169\AndroidManifest.xml:20:5-44
MERGED from [androidx.viewpager:viewpager:1.0.0] C:\Users\Bharath\.gradle\caches\transforms-2\files-2.1\b9e5e01461bb9937833cd8664717b118\AndroidManifest.xml:20:5-44
MERGED from [androidx.viewpager:viewpager:1.0.0] C:\Users\Bharath\.gradle\caches\transforms-2\files-2.1\b9e5e01461bb9937833cd8664717b118\AndroidManifest.xml:20:5-44
MERGED from [androidx.loader:loader:1.0.0] C:\Users\Bharath\.gradle\caches\transforms-2\files-2.1\ba9928d2cea8472736cf29e8645c73d6\AndroidManifest.xml:20:5-44
MERGED from [androidx.loader:loader:1.0.0] C:\Users\Bharath\.gradle\caches\transforms-2\files-2.1\ba9928d2cea8472736cf29e8645c73d6\AndroidManifest.xml:20:5-44
MERGED from [androidx.activity:activity:1.0.0] C:\Users\Bharath\.gradle\caches\transforms-2\files-2.1\5db340d897a66c3bafb09e57ed009d59\AndroidManifest.xml:20:5-22:41
MERGED from [androidx.activity:activity:1.0.0] C:\Users\Bharath\.gradle\caches\transforms-2\files-2.1\5db340d897a66c3bafb09e57ed009d59\AndroidManifest.xml:20:5-22:41
MERGED from [androidx.vectordrawable:vectordrawable-animated:1.1.0] C:\Users\Bharath\.gradle\caches\transforms-2\files-2.1\c9d2c68bf7b5f5cab50bf05d74822481\AndroidManifest.xml:20:5-22:41
MERGED from [androidx.vectordrawable:vectordrawable-animated:1.1.0] C:\Users\Bharath\.gradle\caches\transforms-2\files-2.1\c9d2c68bf7b5f5cab50bf05d74822481\AndroidManifest.xml:20:5-22:41
MERGED from [androidx.vectordrawable:vectordrawable:1.1.0] C:\Users\Bharath\.gradle\caches\transforms-2\files-2.1\b21cdad5d08ad1259c2dfa62dcdf624d\AndroidManifest.xml:20:5-22:41
MERGED from [androidx.vectordrawable:vectordrawable:1.1.0] C:\Users\Bharath\.gradle\caches\transforms-2\files-2.1\b21cdad5d08ad1259c2dfa62dcdf624d\AndroidManifest.xml:20:5-22:41
MERGED from [androidx.coordinatorlayout:coordinatorlayout:1.0.0] C:\Users\Bharath\.gradle\caches\transforms-2\files-2.1\23f7f96949e3d7e86faf4bf403ab98f7\AndroidManifest.xml:20:5-44
MERGED from [androidx.coordinatorlayout:coordinatorlayout:1.0.0] C:\Users\Bharath\.gradle\caches\transforms-2\files-2.1\23f7f96949e3d7e86faf4bf403ab98f7\AndroidManifest.xml:20:5-44
MERGED from [androidx.slidingpanelayout:slidingpanelayout:1.0.0] C:\Users\Bharath\.gradle\caches\transforms-2\files-2.1\58e1d5610d45a396d8ff124220f65b95\AndroidManifest.xml:20:5-44
MERGED from [androidx.slidingpanelayout:slidingpanelayout:1.0.0] C:\Users\Bharath\.gradle\caches\transforms-2\files-2.1\58e1d5610d45a396d8ff124220f65b95\AndroidManifest.xml:20:5-44
MERGED from [androidx.customview:customview:1.0.0] C:\Users\Bharath\.gradle\caches\transforms-2\files-2.1\f351f1cc0c86a102bfa69fd7edab7099\AndroidManifest.xml:20:5-44
MERGED from [androidx.customview:customview:1.0.0] C:\Users\Bharath\.gradle\caches\transforms-2\files-2.1\f351f1cc0c86a102bfa69fd7edab7099\AndroidManifest.xml:20:5-44
MERGED from [androidx.swiperefreshlayout:swiperefreshlayout:1.0.0] C:\Users\Bharath\.gradle\caches\transforms-2\files-2.1\9687aaef143190ebbf43ba1e8b0c620e\AndroidManifest.xml:20:5-44
MERGED from [androidx.swiperefreshlayout:swiperefreshlayout:1.0.0] C:\Users\Bharath\.gradle\caches\transforms-2\files-2.1\9687aaef143190ebbf43ba1e8b0c620e\AndroidManifest.xml:20:5-44
MERGED from [androidx.asynclayoutinflater:asynclayoutinflater:1.0.0] C:\Users\Bharath\.gradle\caches\transforms-2\files-2.1\8c69f846afe8527e2d109285fe0c671a\AndroidManifest.xml:20:5-44
MERGED from [androidx.asynclayoutinflater:asynclayoutinflater:1.0.0] C:\Users\Bharath\.gradle\caches\transforms-2\files-2.1\8c69f846afe8527e2d109285fe0c671a\AndroidManifest.xml:20:5-44
MERGED from [androidx.core:core:1.3.2] C:\Users\Bharath\.gradle\caches\transforms-2\files-2.1\202bb41294b61f2f5eec1e5aad440c8f\AndroidManifest.xml:20:5-22:41
MERGED from [androidx.core:core:1.3.2] C:\Users\Bharath\.gradle\caches\transforms-2\files-2.1\202bb41294b61f2f5eec1e5aad440c8f\AndroidManifest.xml:20:5-22:41
MERGED from [androidx.versionedparcelable:versionedparcelable:1.1.0] C:\Users\Bharath\.gradle\caches\transforms-2\files-2.1\8e049ecab059b0dcad2531c3d925967d\AndroidManifest.xml:20:5-22:41
MERGED from [androidx.versionedparcelable:versionedparcelable:1.1.0] C:\Users\Bharath\.gradle\caches\transforms-2\files-2.1\8e049ecab059b0dcad2531c3d925967d\AndroidManifest.xml:20:5-22:41
MERGED from [androidx.documentfile:documentfile:1.0.0] C:\Users\Bharath\.gradle\caches\transforms-2\files-2.1\0637f9f159e22076b0b0b8a3fbc9f986\AndroidManifest.xml:20:5-44
MERGED from [androidx.documentfile:documentfile:1.0.0] C:\Users\Bharath\.gradle\caches\transforms-2\files-2.1\0637f9f159e22076b0b0b8a3fbc9f986\AndroidManifest.xml:20:5-44
MERGED from [androidx.localbroadcastmanager:localbroadcastmanager:1.0.0] C:\Users\Bharath\.gradle\caches\transforms-2\files-2.1\227438fc2df7ef733948acb15f325585\AndroidManifest.xml:20:5-44
MERGED from [androidx.localbroadcastmanager:localbroadcastmanager:1.0.0] C:\Users\Bharath\.gradle\caches\transforms-2\files-2.1\227438fc2df7ef733948acb15f325585\AndroidManifest.xml:20:5-44
MERGED from [androidx.print:print:1.0.0] C:\Users\Bharath\.gradle\caches\transforms-2\files-2.1\b92e03e349bfecdb193ed3605bf32fb6\AndroidManifest.xml:20:5-44
MERGED from [androidx.print:print:1.0.0] C:\Users\Bharath\.gradle\caches\transforms-2\files-2.1\b92e03e349bfecdb193ed3605bf32fb6\AndroidManifest.xml:20:5-44
MERGED from [androidx.interpolator:interpolator:1.0.0] C:\Users\Bharath\.gradle\caches\transforms-2\files-2.1\1b4e34e76c27cb9b893a65f6ae81d628\AndroidManifest.xml:20:5-44
MERGED from [androidx.interpolator:interpolator:1.0.0] C:\Users\Bharath\.gradle\caches\transforms-2\files-2.1\1b4e34e76c27cb9b893a65f6ae81d628\AndroidManifest.xml:20:5-44
MERGED from [androidx.lifecycle:lifecycle-runtime:2.1.0] C:\Users\Bharath\.gradle\caches\transforms-2\files-2.1\aae882648a4e308c866222e6e579990e\AndroidManifest.xml:20:5-44
MERGED from [androidx.lifecycle:lifecycle-runtime:2.1.0] C:\Users\Bharath\.gradle\caches\transforms-2\files-2.1\aae882648a4e308c866222e6e579990e\AndroidManifest.xml:20:5-44
MERGED from [androidx.lifecycle:lifecycle-viewmodel:2.1.0] C:\Users\Bharath\.gradle\caches\transforms-2\files-2.1\6eb976580897f457144628d10b85e08e\AndroidManifest.xml:20:5-44
MERGED from [androidx.lifecycle:lifecycle-viewmodel:2.1.0] C:\Users\Bharath\.gradle\caches\transforms-2\files-2.1\6eb976580897f457144628d10b85e08e\AndroidManifest.xml:20:5-44
MERGED from [androidx.savedstate:savedstate:1.0.0] C:\Users\Bharath\.gradle\caches\transforms-2\files-2.1\3ad0d7261448b3a58aea20440439dff2\AndroidManifest.xml:20:5-22:41
MERGED from [androidx.savedstate:savedstate:1.0.0] C:\Users\Bharath\.gradle\caches\transforms-2\files-2.1\3ad0d7261448b3a58aea20440439dff2\AndroidManifest.xml:20:5-22:41
MERGED from [androidx.lifecycle:lifecycle-livedata:2.0.0] C:\Users\Bharath\.gradle\caches\transforms-2\files-2.1\f69cb52051f654766a13b4a279dc57a1\AndroidManifest.xml:20:5-44
MERGED from [androidx.lifecycle:lifecycle-livedata:2.0.0] C:\Users\Bharath\.gradle\caches\transforms-2\files-2.1\f69cb52051f654766a13b4a279dc57a1\AndroidManifest.xml:20:5-44
MERGED from [androidx.lifecycle:lifecycle-livedata-core:2.0.0] C:\Users\Bharath\.gradle\caches\transforms-2\files-2.1\4926697bcaa26a5442c4129d07108f3f\AndroidManifest.xml:20:5-44
MERGED from [androidx.lifecycle:lifecycle-livedata-core:2.0.0] C:\Users\Bharath\.gradle\caches\transforms-2\files-2.1\4926697bcaa26a5442c4129d07108f3f\AndroidManifest.xml:20:5-44
MERGED from [androidx.arch.core:core-runtime:2.0.0] C:\Users\Bharath\.gradle\caches\transforms-2\files-2.1\c592fff363177ed91c6de6d366536cfe\AndroidManifest.xml:20:5-44
MERGED from [androidx.arch.core:core-runtime:2.0.0] C:\Users\Bharath\.gradle\caches\transforms-2\files-2.1\c592fff363177ed91c6de6d366536cfe\AndroidManifest.xml:20:5-44
INJECTED from D:\AndroidStudioProjects\MyApplication\app\src\main\AndroidManifest.xml
INJECTED from D:\AndroidStudioProjects\MyApplication\app\src\main\AndroidManifest.xml
	android:targetSdkVersion
		INJECTED from D:\AndroidStudioProjects\MyApplication\app\src\main\AndroidManifest.xml
		ADDED from D:\AndroidStudioProjects\MyApplication\app\src\main\AndroidManifest.xml
		INJECTED from D:\AndroidStudioProjects\MyApplication\app\src\main\AndroidManifest.xml
	android:minSdkVersion
		INJECTED from D:\AndroidStudioProjects\MyApplication\app\src\main\AndroidManifest.xml
		ADDED from D:\AndroidStudioProjects\MyApplication\app\src\main\AndroidManifest.xml
		INJECTED from D:\AndroidStudioProjects\MyApplication\app\src\main\AndroidManifest.xml
